animation{
  name = "stopped",
  src_image = "npc/old_woman.png",
  frame_delay = 600,
  frame_to_loop_on = 0,
  directions = {
    { x = 0, y = 0, frame_width = 24, frame_height = 24, origin_x = 12, origin_y = 21, num_frames = 2 },
    { x = 0, y = 24, frame_width = 24, frame_height = 24, origin_x = 12, origin_y = 21, num_frames = 2 },
    { x = 48, y = 0, frame_width = 24, frame_height = 24, origin_x = 12, origin_y = 21, num_frames = 2 },
    { x = 48, y = 24, frame_width = 24, frame_height = 24, origin_x = 12, origin_y = 21, num_frames = 2 },
  },
}
